char.png
size:2036,1968
filter:Linear,Linear
pma:true
ax
bounds:999,802,338,414
rotate:90
char1/agız_1
bounds:170,1915,166,50
offsets:1,1,170,52
char3/agız_1
bounds:170,1915,166,50
offsets:1,1,170,52
char1/agız_2
bounds:2,1492,248,166
offsets:1,1,250,168
char1/agız_3
bounds:338,1915,135,50
offsets:1,1,137,52
char3/agız_3
bounds:338,1915,135,50
offsets:1,1,137,52
char1/agız_4
bounds:1187,1747,262,136
offsets:1,1,266,138
char1/govde
bounds:1001,1185,212,277
rotate:90
char1/goz_bebegi_sag
bounds:934,1444,169,180
offsets:1,1,172,182
rotate:90
char1/goz_bebegi_sol
bounds:1116,1399,195,194
offsets:1,1,197,196
char3/goz_bebeg_sol
bounds:1116,1399,195,194
offsets:1,1,197,196
char1/kas_sag
bounds:612,1896,166,69
offsets:2,1,169,71
char1/kas_sol
bounds:1029,1894,212,71
offsets:1,1,216,73
char1/kulak_sag
bounds:199,1292,198,248
offsets:1,1,200,250
rotate:90
char1/kulak_sol
bounds:1280,1142,250,275
offsets:1,1,252,277
rotate:90
char1/sag_ayak
bounds:2,1801,194,112
offsets:2,2,197,115
char1/sag_goz_1
bounds:2,209,377,383
offsets:1,1,379,385
rotate:90
char1/sag_goz_2
bounds:1651,405,376,382
offsets:1,1,378,384
rotate:90
char3/sag_goz_2
bounds:1651,405,376,382
offsets:1,1,378,384
rotate:90
char1/sag_kol
bounds:562,1617,150,278
rotate:90
char1/sapka
bounds:926,449,723,332
offsets:1,1,725,334
char1/sol_ayak
bounds:590,1769,197,125
offsets:1,1,199,128
char1/sol_goz_1
bounds:787,46,469,401
offsets:1,1,471,403
char1/sol_goz_2
bounds:1415,783,460,343
offsets:1,1,462,345
char1/sol_kol
bounds:842,1615,150,278
rotate:90
char1/toka_sag
bounds:387,113,388,398
rotate:90
char2/agız_1
bounds:2,1916,166,49
offsets:2,1,170,52
char2/agız_2
bounds:252,1492,248,166
offsets:1,1,250,168
char2/agız_3
bounds:475,1915,135,50
offsets:1,1,137,52
char2/agız_4
bounds:1451,1733,263,136
offsets:1,1,266,138
char2/govde
bounds:449,1238,209,274
rotate:90
char2/goz_bebeg_sol
bounds:2,1296,195,194
offsets:1,1,197,196
char2/kas_sol
bounds:780,1896,247,69
offsets:1,9,250,79
char2/kulak_sag
bounds:1620,1381,192,291
offsets:1,1,194,293
rotate:90
char2/kulak_sol
bounds:1557,1128,251,333
offsets:1,1,254,335
rotate:90
char2/sag_ayak
bounds:198,1801,194,112
offsets:2,2,197,115
char2/sag_kol
bounds:2,1660,139,278
rotate:90
char2/sol_ayak
bounds:789,1769,197,125
offsets:1,1,199,128
char2/sol_goz_1
bounds:1258,2,469,401
offsets:1,1,471,403
char2/sol_goz_2
bounds:2,588,460,343
offsets:1,1,462,345
char2/sol_kol
bounds:282,1660,139,278
rotate:90
char3/agız_2
bounds:502,1449,248,166
offsets:1,1,250,168
char3/agız_4
bounds:1716,1733,264,136
offsets:1,1,266,138
char3/govde
bounds:725,1233,209,274
rotate:90
char3/kas_sag
bounds:1243,1885,344,80
offsets:1,1,346,82
char3/kas_sol
bounds:1589,1871,402,94
offsets:1,1,404,96
char3/kulak_sag
bounds:1313,1394,184,305
offsets:1,1,186,308
rotate:90
char3/kulak_sol
bounds:2,1039,251,329
offsets:1,1,253,331
rotate:90
char3/sag_ayak
bounds:394,1801,194,112
offsets:2,2,197,115
char3/sag_goz_1
bounds:641,848,356,383
offsets:1,1,358,385
char3/sag_kol
bounds:1122,1595,150,278
rotate:90
char3/sol_ayak
bounds:988,1767,197,125
offsets:1,1,199,128
char3/sol_goz_2
bounds:464,503,460,343
offsets:1,1,462,345
char3/sol_kol
bounds:1402,1580,151,278
rotate:90
char3/soz_bebegi_sag
bounds:752,1445,168,180
offsets:1,1,172,182
rotate:90
hammer
bounds:1682,1575,156,271
rotate:90
sledgehammer
bounds:333,933,306,303

char_2.png
size:1844,1896
filter:Linear,Linear
pma:true
char1/kafa
bounds:2,219,1002,776
offsets:1,1,1005,778
rotate:90
char1/sac
bounds:780,408,1034,478
offsets:1,1,1036,480
char1/toka_sol
bounds:780,2,404,424
rotate:90
char2/kafa
bounds:1066,888,1005,776
offsets:1,1,1007,778
rotate:90
char2/sac
bounds:2,1223,1062,670
offsets:1,1,1064,672
char3/sol_goz_1
bounds:1206,5,469,401
offsets:1,1,471,403

char_3.png
size:1008,1172
filter:Linear,Linear
pma:true
char3/kafa
bounds:2,394,1002,776
offsets:1,1,1005,778
char3/sakal
bounds:2,2,866,390
offsets:1,3,868,394
